[gd_scene load_steps=5 format=2]

[ext_resource path="res://assets/PNG/Man Blue/manBlue_gun.png" type="Texture" id=1]
[ext_resource path="res://enemy/enemy.gd" type="Script" id=2]
[ext_resource path="res://enemy/RayCast2D.gd" type="Script" id=3]

[sub_resource type="CapsuleShape2D" id=1]
radius = 14.0
height = 26.0

[node name="enemy" type="KinematicBody2D" groups=["enemy"]]
collision_layer = 8
collision_mask = 7
script = ExtResource( 2 )

[node name="Sprite" type="Sprite" parent="."]
texture = ExtResource( 1 )

[node name="CollisionShape2D" type="CollisionShape2D" parent="."]
position = Vector2( -9, 0 )
shape = SubResource( 1 )

[node name="Position2D" type="Position2D" parent="."]
position = Vector2( 33, 10 )

[node name="RayCast2D" type="RayCast2D" parent="."]
enabled = true
cast_to = Vector2( 230, 0 )
collision_mask = 3
script = ExtResource( 3 )
mx = 0.6
mn = -0.6
